<svg width="30" height="20" viewBox="0 0 30 20" fill="none" xmlns="http://www.w3.org/2000/svg">
<path d="M20 8.57143C22.2133 8.57143 23.9867 6.65714 23.9867 4.28571C23.9867 1.91429 22.2133 0 20 0C17.7867 0 16 1.91429 16 4.28571C16 6.65714 17.7867 8.57143 20 8.57143ZM9.33333 8.57143C11.5467 8.57143 13.32 6.65714 13.32 4.28571C13.32 1.91429 11.5467 0 9.33333 0C7.12 0 5.33333 1.91429 5.33333 4.28571C5.33333 6.65714 7.12 8.57143 9.33333 8.57143ZM9.33333 11.4286C6.22667 11.4286 0 13.1 0 16.4286V20H18.6667V16.4286C18.6667 13.1 12.44 11.4286 9.33333 11.4286ZM20 11.4286C19.6133 11.4286 19.1733 11.4571 18.7067 11.5C20.2533 12.7 21.3333 14.3143 21.3333 16.4286V20H29.3333V16.4286C29.3333 13.1 23.1067 11.4286 20 11.4286Z" fill="#828282"/>
</svg>
