<svg width="20" height="21" viewBox="0 0 20 21" fill="none" xmlns="http://www.w3.org/2000/svg">
<path d="M18 0.487183H2C0.9 0.487183 0.00999999 1.38718 0.00999999 2.48718L0 20.4872L4 16.4872H18C19.1 16.4872 20 15.5872 20 14.4872V2.48718C20 1.38718 19.1 0.487183 18 0.487183ZM16 12.4872H4V10.4872H16V12.4872ZM16 9.48718H4V7.48718H16V9.48718ZM16 6.48718H4V4.48718H16V6.48718Z" fill="#F2F2F2"/>
</svg>
