<svg width="24" height="24" viewBox="0 0 24 24" fill="none" xmlns="http://www.w3.org/2000/svg">
<path d="M21 12V19C21 19.5304 20.7893 20.0391 20.4142 20.4142C20.0391 20.7893 19.5304 21 19 21H5C4.46957 21 3.96086 20.7893 3.58579 20.4142C3.21071 20.0391 3 19.5304 3 19V5C3 4.46957 3.21071 3.96086 3.58579 3.58579C3.96086 3.21071 4.46957 3 5 3H16" stroke="#F15411" stroke-width="2" stroke-linecap="round" stroke-linejoin="round"/>
<path d="M12.2163 13.1313C15.04 10.6369 18.5021 7.57321 19.7621 6.44456M19.7621 6.44456C21.0423 5.29786 20.0495 6.14851 13.8049 11.6227C1.41385 22.4849 12.6134 12.6965 19.7621 6.44456Z" stroke="#F15411" stroke-width="2"/>
<path d="M14.2753 13.372C12.1575 11.0557 9.56095 8.21084 8.6159 7.1628M8.6159 7.1628C7.65575 6.09802 8.40035 6.88791 13.0838 11.9711C22.3771 22.0574 13.9774 12.9682 8.6159 7.1628Z" stroke="#F15411" stroke-width="2"/>
</svg>
