<svg width="22" height="20" viewBox="0 0 22 20" fill="none" xmlns="http://www.w3.org/2000/svg">
<path d="M10.5263 16.0737L17.0316 20L15.3053 12.6L21.0526 7.62105L13.4842 6.97895L10.5263 0L7.56842 6.97895L0 7.62105L5.74737 12.6L4.02105 20L10.5263 16.0737Z" fill="#828282"/>
</svg>
